{
    "add_repo": {
        "intro": "從其他裝置或網站上掃描想新增的軟體庫的 QR code。",
        "no_internet": "沒網路嗎？沒關係。瞭解<a href=\"../swap/\">如何離線傳送並接收應用程式。</a>",
        "open_repo_link": {
            "description": "如果軟體庫連結是透過電子郵件、社群網站或者簡訊收到的，開啟連結即可在 F-Droid 中透過該軟體庫安裝應用程式。",
            "short_summary": "開啟軟體庫連結",
            "steps": {
                "step_1": "下載並在您的 Android 裝置上安裝 F-Droid 應用程式。",
                "step_2": "點選連結以在瀏覽器中開啟。",
                "step_3": "開啟網頁後，輕觸「新增至 F-Droid」按鈕。",
                "step_4": "輕觸「我已安裝 F-Droid」按鈕，F-Droid 應用程式就會開啟。",
                "step_5": "「新增軟體庫」將會與預先填入的軟體庫位址一起顯示，輕觸「新增」以新增。",
                "step_6": "軟體庫將被新增。要檢視現有的軟體庫，開啟「設定」並選擇「軟體庫」。",
                "step_7": "輕觸軟體庫以檢視詳細資訊。",
                "step_8": "選擇您想要的應用程式並在您的裝置上安裝。"
            },
            "title": "在您裝置上開啟軟體庫連結"
        },
        "overview": {
            "summary": "要取得更多內容，請新增軟體庫至 F-Droid。軟體庫是規劃好的內容的集合。您可以直接透過他人取得有關他人軟體庫的資訊。開發者通常會在他們的網站上放他們軟體庫的連結。其他人也常常會在電子郵件、Facebook 或 Twitter 上分享軟體庫的連結。",
            "title": "取得更多內容。"
        },
        "scan_qr_code": {
            "description": "從其他裝置或網站上掃描想新增的軟體庫的 QR code。",
            "related_tutorial": "您可能也有興趣：<a href=\"../swap/\">如何離線傳送並接收應用程式</a>",
            "short_summary": "掃描 QR Code",
            "steps": {
                "step_1": "在軟體庫的 QR code 顯示後，使用 QR Code 掃描器進行掃描。",
                "step_2": "輕觸掃描後出現的連結。如果能透過 F-Droid 開啟連結，那麼按照指示即可完成。如果無法透過 F-Droid 開啟，繼續下一步。",
                "step_3": "如果沒有透過 F-Droid 開啟連結的選項，關閉掃描器並開啟 F-Droid 應用程式。",
                "step_4": "在 F-Droid 中輕觸「設定」。在「我的應用程式」分類下選擇「軟體庫」。",
                "step_5": "在軟體庫畫面點選右上角的加號。",
                "step_6": "軟體庫位址將會自動填入。輕觸「新增」。提醒：軟體庫會被新增至 F-Droid 中，但直到您手動選擇並安裝前，應用程式不會自動安裝。"
            },
            "title": "從其他裝置掃描 QR Code"
        },
        "title": "如何新增軟體庫至 F-Droid"
    },
    "create_repo": {
        "customize_repo": {
            "description": "您可編輯應用程式與檔案的摘要，以讓目標受眾理解。您也可以針對不同語言編輯不同的內容，並在研討會與訓練中無縫分享給參與者。",
            "steps": {
                "step_1": "點選項目以檢視詳細資訊。",
                "step_2": "點選「編輯」。",
                "step_3": "針對目標受眾自訂內容。提醒：內容的變更只會套用於您的軟體庫，變更並不會一併同步到原始來源。在為不是您的內容自訂資訊時請尊重原作者。",
                "step_4": "所有變更都會自動儲存。"
            },
            "title": "自訂軟體庫"
        },
        "download_and_install": {
            "steps": {
                "step_1": "下載並安裝 「Repomaker」 至您的電腦。請參閱 <a href=\"https://gitlab.com/fdroid/repomaker/blob/master/README.md#installation\">安裝指南</a> 了解更多如何執行此操作的詳細資訊。",
                "step_2": "啟動 Repomaker。註冊或登入以開始。",
                "step_3": "建立新軟體庫並命名。",
                "step_4": "可選擇從 Gallery 和可用的軟體庫新增應用程式，或上傳檔案。點選「從 Gallery 中新增」以從可用的內容中選擇。",
                "step_5": "點選您想新增的項目旁的「新增」按鈕。完成後，點選返回箭頭返回軟體庫。",
                "step_6": "您的應用程式將顯示於軟體庫內容頁面。"
            },
            "title": "下載並安裝 Repomaker 以開始建立"
        },
        "intro": "找不到您想找的嗎？在您的電腦上下載 Repomaker 以建立您可個人化的應用程式與檔案的集合。",
        "overview": {
            "summary": "建立您自訂的應用程式軟體庫。透過 F-Droid 散佈內容。訓練師在沒有可靠的網路連線時，透過軟體庫來輕易地與訓練的參與者分享資源和應用程式。開發者也藉由軟體庫向大眾散佈他們的應用程式。",
            "title": "加入您自己的應用程式與檔案。"
        },
        "related_tutorial": "您可能也有興趣：<a href=\"../add-repo/\">如何新增軟體庫至 F-Droid</a>",
        "share_repo": {
            "steps": {
                "step_1": "開啟您想分享的軟體庫，點選選單中的「分享」。注意：在分享前需先設定軟體庫的儲存位置。",
                "step_2": "您將會被要求設定儲存位置以在分享前發佈軟體庫。如果您未看到這個頁面，請跳至步驟 4。",
                "step_3": "選擇最符合您需求的儲存位置選項。設定完儲存位置後即可分享儲存庫。回到「分享」。",
                "step_4": "選擇複製連結並透過電子郵件或簡訊直接傳送給其他人，或在 Facebook 和 Twitter 上分享您的軟體庫。其他人開啟您軟體庫的連結後，新增您軟體庫至 F-Droid 即可存取其中的應用程式。參考<a href=\"../add-repo/\">如何新增軟體庫至 F-Droid</a> 以取得更多資訊。",
                "step_5": "透過「檢視軟體庫」選項可檢視您已發佈或已分享的項目。"
            },
            "title": "自訂軟體庫"
        },
        "title": "如何建立軟體庫",
        "update_repo": {
            "steps": {
                "step_1": "透過 Gallery 新增的應用程式會在原始來源更新時自動更新。手動上傳的應用程式則可於軟體庫畫面中拖曳上傳新版本。",
                "step_2": "您也可以開啟單一項目以新增版本。選擇編輯。",
                "step_3": "捲動至版本。接著在「版本歷史記錄」下新增版本。",
                "step_4": "接著在「版本歷史記錄」下新增版本。"
            },
            "title": "更新軟體庫"
        }
    },
    "misc": {
        "option_x_description": "選項 {{ number }}：{{ description }}",
        "overview": {
            "summary": "F-Droid 是一個獨立並由社群支援的 Android 應用程式商店，完全自由免費且開放原始碼。有了 F-Droid，您可以瀏覽超過 1200 個開源的應用程式，從其他軟體庫搜尋並安裝應用程式，還能建立自己的軟體庫。現在就在您的 Android 裝置上前往 f-droid.org，下載客戶端並開始使用吧！",
            "title": "有了 F-Droid 您能做的事",
            "tutorial_x_title": "教學 {{ number }}：{{ title }}"
        },
        "step_x": "步驟 {{ number }}",
        "step_x_description": "步驟 {{ number }}：{{ description }}"
    },
    "swap": {
        "all_devices_need_fdroid": "所有裝置都需先行安裝 F-Droid。所有裝置都得依照下列步驟操作。",
        "intro": "沒網路嗎？沒關係。從您附近的人取得應用程式。",
        "overview": {
            "summary": "沒網路嗎？沒關係。透過 F-Droid Nearby 就能與附近的人傳送並接收內容。",
            "title": "離線傳送並接收應用程式。"
        },
        "related_tutorial": "您可能也有興趣：<a href=\"../create-repo/\">如何建立軟體庫</a>",
        "step_1": "開啟 F-Droid。輕觸畫面下方選單中的「Nearby」。",
        "step_10": "要存取您已安裝的應用程式，請開啟 F-Droid 設定並選擇「管理已安裝的應用程式」在「我的應用程式」分類下。",
        "step_2": "輕觸「找我附近的人」以搜尋相容的裝置。",
        "step_3": "找到附近的人後，雙方都得選擇對方的裝置。",
        "step_4": "連線完成後，選擇您想與對方分享的應用程式。",
        "step_5": "輕觸「—>」按鈕。",
        "step_6": "對方會需要同意連線請求。",
        "step_7": "在您想安裝的應用程式旁輕觸「安裝」按鈕。",
        "step_8": "再次輕觸「安裝」。接著依照 Android 系統指示以完成安裝手續。",
        "step_9": "安裝完成後，即可透過應用程式啟動器開啟，或在 F-Droid 的「已安裝的應用程式」中存取。",
        "title": "如何離線傳送並接收應用程式"
    }
}
