{
    "antifeatures": {
        "Ads": "该应用包含广告",
        "DisabledAlgorithm": "该程序的安全签名较弱",
        "KnownVuln": "该程序包含已知的安全漏洞",
        "NoSourceSince": "源代码不再可用，无法更新",
        "NonFreeAdd": "该程序推广不自由插件",
        "NonFreeAssets": "该程序包含不自由组件",
        "NonFreeDep": "该程序依赖于其它不自由程序",
        "NonFreeNet": "该程序推广不自由网络服务",
        "Tracking": "此程序跟踪并报告的行为",
        "UpstreamNonFree": "上游源代码不是完全自由的"
    },
    "app_categories": {
        "Connectivity": "连接",
        "Development": "开发",
        "Games": "游戏",
        "Graphics": "图像",
        "Internet": "互联网",
        "Money": "理财",
        "Multimedia": "多媒体",
        "Navigation": "导航",
        "Phone & SMS": "电话与短信",
        "Reading": "阅读",
        "Science & Education": "科教",
        "Security": "安全",
        "Sports & Health": "运动与健康",
        "System": "系统",
        "Theming": "主题",
        "Time": "时间",
        "Writing": "记录",
        "show_all_packages": "显示全部 %d 个安装包"
    },
    "index": {
        "download_fdroid": "下载 F-Droid",
        "gpg_signature": "PGP 签名",
        "introduction": "F-Droid 是一个 Android 平台上 FOSS（Free and Open Source Software，自由开源软件）的目录，并提供下载安装支持。使用客户端可以更轻松地浏览、安装及跟进设备上的程序更新。",
        "screenshot": "F-Droid 的 Android 应用截图",
        "title": "F-Droid 是什么？"
    },
    "navigation": {
        "about": "关于",
        "apps": "应用",
        "contribute": "贡献",
        "documentation": "文档",
        "edit_on_gitlab": "在 Gitlab 上编辑",
        "forum": "论坛",
        "issues": "反馈",
        "news": "新闻",
        "translate_on_weblate": "在 Weblate 上翻译"
    },
    "package": {
        "added_on": "更新日期：{{ package_added_date }}",
        "anti_features": "负特性",
        "anti_features_warning": "此程序有一些未必喜欢的功能。",
        "author": "作者",
        "build_log": "构建日志",
        "build_metadata": "编译信息",
        "changelog": "更新日志",
        "donate": "捐赠",
        "download": "下载{{ file_extension }}",
        "flattr": "Flattr",
        "gpg_signature": "PGP签名",
        "issue_tracker": "问题跟踪系统",
        "liberapay": "Liberapay",
        "license": "开源协议",
        "minimum_android_version": "该版本需要 Android{{ android_version }} 及以上版本的 Android 系统。",
        "new_in_version": "新版本 {{ latest_version }}",
        "opencollective": "开放协作",
        "package_icon_alt": "安装包图标",
        "package_screenshot_alt": "应用截图",
        "packages": "安装包",
        "permissions": "权限",
        "signed_by_developer": "此安装包由原开发者编译并签名。",
        "signed_by_fdroid": "此安装包由 F-Droid 编译并签名，且保证与此<a href=\"{{ source_code_url }}\">源代码 tarball</a> 保持一致。",
        "source_code": "源代码",
        "suggest_downloading_via_fdroid": "尽管下面提供了 APK 安装包的下载选项，但您应该注意，以这种方式安装将不会收到更新通知，这是一种不太安全的下载方式。 我们建议您安装使用 F-Droid 客户端。",
        "suggested": "推荐",
        "technical_info": "技术信息",
        "translation": "翻译",
        "version_info": "<b>版本：{{ package_version }}</b>({{ package_version_code }})",
        "website": "网站"
    },
    "permissions": {
        "permdesc_acceptHandovers": "允许该程序继续进行在其他程序中发起的通话。",
        "permdesc_accessBackgroundLocation": "如果另外授予大致位置信息或精确位置信息访问权限，该程序便可在后台运行时使用位置信息。",
        "permdesc_accessCoarseLocation": "此程序只能在前台根据网络来源（例如手机信号塔和WLAN网络）获取的位置信息。的手机必须支持并开启这些位置信息服务，此程序才能使用这些服务。",
        "permdesc_accessDrmCertificates": "允许程序配置和使用DRM证书。普通程序绝不需要此权限。",
        "permdesc_accessFineLocation": "此程序只有在前台运行时才能获取的精确位置信息。的手机必须支持并开启这些位置信息服务，此程序才能使用这些服务。这可能会增加耗电量。",
        "permdesc_accessImsCallService": "允许程序自行使用即时通讯服务拨打电话。",
        "permdesc_accessLocationExtraCommands": "允许该程序使用其他的位置信息提供程序命令。此权限使该程序可以干扰GPS或其他位置信息源的运作。",
        "permdesc_accessNetworkConditions": "允许程序监听网络状况的观测信息。普通程序绝不需要此权限。",
        "permdesc_accessNetworkState": "允许该程序查看网络连接的相关信息，例如存在和连接的网络。",
        "permdesc_accessNotifications": "允许该程序检索、检查并清除通知，包括其他程序发布的通知。",
        "permdesc_accessWifiState": "允许该程序查看WLAN网络的相关信息，例如是否启用了WLAN以及连接的WLAN设备的名称。",
        "permdesc_accessWimaxState": "允许该程序确定是否启用了WiMAX以及连接的任何WiMAX网络的相关信息。",
        "permdesc_access_notification_policy": "允许此程序读取和写入“勿扰”模式配置。",
        "permdesc_activityRecognition": "此程序可以识别的健身运动。",
        "permdesc_addVoicemail": "允许程序在的语音信箱中留言。",
        "permdesc_answerPhoneCalls": "允许该程序接听来电。",
        "permdesc_audioWrite": "允许该程序修改的音乐收藏。",
        "permdesc_bindCarrierMessagingService": "允许程序绑定到运营商消息传递服务的顶级接口。普通程序绝不需要此权限。",
        "permdesc_bindCarrierServices": "允许程序绑定到运营商服务。普通程序绝不需要此权限。",
        "permdesc_bindConditionProviderService": "允许程序绑定到条件提供程序服务的顶级接口。普通程序绝不需要此权限。",
        "permdesc_bindDreamService": "允许程序绑定到互动屏保服务的顶级接口。普通程序绝不需要此权限。",
        "permdesc_bindNotificationListenerService": "允许程序绑定到通知侦听器服务的顶级接口（普通程序绝不需要此权限）。",
        "permdesc_bind_connection_service": "允许该程序与电话服务交互以便接打电话。",
        "permdesc_bind_incall_service": "允许程序控制用户看到通话屏幕的时机和方式。",
        "permdesc_bluetooth": "允许该程序查看手机上的蓝牙配置，以及与配对设备建立连接或接受其连接请求。",
        "permdesc_bluetoothAdmin": "允许程序配置本地蓝牙手机，并允许其查找远程设备且与之配对。",
        "permdesc_bodySensors": "允许该程序存取监测身体状况的传感器所收集的数据，例如的心率。",
        "permdesc_broadcastSticky": "允许该程序发送持久广播消息，此类消息在广播结束后仍会保留。过度使用可能会导致手机使用过多内存，从而降低其速度或稳定性。",
        "permdesc_callCompanionApp": "允许程序查看并控制设备上正在进行的通话，其中包括通话号码和通话状态等信息。",
        "permdesc_callPhone": "允许该程序在未执行操作的情况下拨打电话号码。此权限可能会导致意外收费或呼叫。请注意，此权限不允许该程序拨打紧急电话号码。恶意程序可通过拨打电话产生相关费用，而无需的确认。",
        "permdesc_camera": "此程序可随时使用相机拍摄照片和录制视频。",
        "permdesc_changeNetworkState": "允许程序更改网络连接的状态。",
        "permdesc_changeTetherState": "允许程序更改绑定网络连接的状态。",
        "permdesc_changeWifiMulticastState": "允许该程序使用多播地址接收发送到WLAN网络上所有设备（而不仅仅是的手机）的数据包。该操作的耗电量比非多播模式要大。",
        "permdesc_changeWifiState": "允许该程序与WLAN接入点建立和断开连接，以及更改WLAN网络的设备配置。",
        "permdesc_changeWimaxState": "允许该程序建立和断开手机与WiMAX网络之间的连接。",
        "permdesc_connection_manager": "允许该程序管理电信网络连接。",
        "permdesc_control_incall_experience": "允许程序向用户提供通话体验。",
        "permdesc_createNetworkSockets": "允许该程序创建网络套接字和使用自定义网络协议。浏览器和其他某些程序提供了向互联网发送数据的途径，因此程序无需该权限即可向互联网发送数据。",
        "permdesc_disableKeyguard": "允许该程序停用键锁以及任何关联的密码安全措施。例如，让手机在接听来电时停用键锁，在通话结束后重新启用键锁。",
        "permdesc_enableCarMode": "允许程序启用车载模式。",
        "permdesc_expandStatusBar": "允许程序展开或收起状态栏。",
        "permdesc_foregroundService": "允许该程序使用前台服务。",
        "permdesc_getAccounts": "允许该程序获取手机已知的帐号列表，其中可能包括由已安装的程序创建的所有帐号。",
        "permdesc_getPackageSize": "允许程序检索其代码、数据和缓存大小",
        "permdesc_getTasks": "允许该程序检索近期运行的和当前正在运行的任务的相关信息。此权限可让该程序了解设备上使用了哪些程序。",
        "permdesc_handoverStatus": "允许此程序接收AndroidBeam当前传输内容的相关信息",
        "permdesc_imagesWrite": "允许该程序修改的照片收藏。",
        "permdesc_install_shortcut": "允许程序自行添加主屏幕快捷方式。",
        "permdesc_invokeCarrierSetup": "允许程序调用运营商提供的配置程序。普通程序绝不需要此权限。",
        "permdesc_killBackgroundProcesses": "允许该程序结束其他程序的后台进程。此权限可导致其他程序停止运行。",
        "permdesc_manageFace": "允许该程序调用方法来添加和删除可用的人脸模板。",
        "permdesc_manageFingerprint": "允许该程序调用方法来添加和删除可用的指纹模板。",
        "permdesc_manageNetworkPolicy": "允许程序管理网络规范和定义专门针对程序的规则。",
        "permdesc_manageOwnCalls": "允许该程序通过系统转接来电，以改善通话体验。",
        "permdesc_manageProfileAndDeviceOwners": "允许程序设置个人资料所有者和设备所有者。",
        "permdesc_mediaLocation": "允许该程序从的媒体收藏中读取位置信息。",
        "permdesc_modifyAudioSettings": "允许该程序修改全局音频设置，例如音量和用于输出的扬声器。",
        "permdesc_modifyNetworkAccounting": "允许该程序修改对于各程序的网络使用情况的统计方式。普通程序不应使用此权限。",
        "permdesc_nfc": "允许程序与近距离无线通信(NFC)标签、卡和读取器通信。",
        "permdesc_persistentActivity": "允许该程序在内存中持续保留其自身的某些组件。这会限制其他程序可用的内存，从而减缓手机运行速度。",
        "permdesc_processOutgoingCalls": "允许程序在拨出电话时查看拨打的电话号码，并选择改为拨打其他号码或完全中止通话。",
        "permdesc_readCalendar": "此程序可读取手机上存储的所有日历活动，并分享或保存的日历数据。",
        "permdesc_readCallLog": "此程序可读取的通话记录。",
        "permdesc_readCellBroadcasts": "允许程序读取的设备收到的小区广播消息。小区广播消息是在某些地区发送的、用于发布紧急情况警告的提醒信息。恶意程序可能会在收到小区紧急广播时干扰设备的性能或操作。",
        "permdesc_readContacts": "允许该程序读取手机上存储的联系人的相关数据，包括通过打电话、发送电子邮件或以其他方式与特定个人通信的频率。此权限可让程序保存的联系人数据，而恶意程序可能会在不知情的情况下分享联系人数据。",
        "permdesc_readHistoryBookmarks": "允许该程序读取浏览器访问过的所有网址记录以及浏览器的所有书签。请注意：此权限可能不适用于第三方浏览器或具备网页浏览功能的其他程序。",
        "permdesc_readInstallSessions": "允许程序读取安装会话。这样，程序将可以查看有关当前程序包安装的详情。",
        "permdesc_readNetworkUsageHistory": "允许程序读取特定网络和程序的网络使用情况历史记录。",
        "permdesc_readPhoneNumbers": "允许该程序访问设备上的电话号码。",
        "permdesc_readPhoneState": "允许该程序访问设备的电话功能。此权限可让该程序确定本机号码和设备ID、是否正处于通话状态以及拨打的号码。",
        "permdesc_readSms": "此程序可读取手机上存储的所有短信。",
        "permdesc_readSyncSettings": "允许该程序读取某个帐号的同步设置。例如，此权限可确定“联系人”程序是否与某个帐号同步。",
        "permdesc_readSyncStats": "允许该程序读取某个帐号的同步统计信息，包括同步活动历史记录和同步数据量。",
        "permdesc_receiveBootCompleted": "允许程序在系统完成引导后立即自动启动。这样可能会延长手机的启动时间，并允许程序始终运行，从而导致手机总体运行速度减慢。",
        "permdesc_receiveMms": "允许该程序接收和处理彩信。这就意味着，该程序可能会监视发送到设备的彩信，或删除发送到设备的彩信而不向显示。",
        "permdesc_receiveSms": "允许该程序接收和处理短信。这就意味着，该程序可能会监视发送到设备的短信，或删除发送到设备的短信而不向显示。",
        "permdesc_receiveWapPush": "允许该程序接收和处理WAP消息。此权限包括监视发送给的消息或删除发送给的消息而不向显示的功能。",
        "permdesc_recordAudio": "此程序可随时使用麦克风进行录音。",
        "permdesc_register_call_provider": "允许该程序注册新的电信网络连接。",
        "permdesc_register_sim_subscription": "允许该程序注册新的电信SIM卡连接。",
        "permdesc_removeDrmCertificates": "允许程序移除DRM证书。普通程序绝不需要此权限。",
        "permdesc_reorderTasks": "允许该程序将任务移动到前台和后台。该程序可能不经的命令自行执行此操作。",
        "permdesc_requestDeletePackages": "允许程序请求删除文件包。",
        "permdesc_requestIgnoreBatteryOptimizations": "允许程序请求相应的权限，以便忽略针对该程序的电池优化。",
        "permdesc_requestInstallPackages": "允许程序请求安装文件包。",
        "permdesc_requestPasswordComplexity": "允许程序了解屏幕锁定复杂度（高、中、低或无），即屏幕锁定的可能长度范围和类型。程序还可以建议用户将屏幕锁定更新为特定复杂度，但用户可以随意选择忽略该建议并离开程序。请注意，系统不会以纯文字形式存储屏幕锁定选项的内容，因此程序不会知道确切密码。",
        "permdesc_route_media_output": "允许该程序将媒体输出线路更改到其他外部设备。",
        "permdesc_runInBackground": "此程序可在后台运行，这样可能会加快耗电速度。",
        "permdesc_sdcardRead": "允许该程序读取共享存储空间中的内容。",
        "permdesc_sdcardWrite": "允许该程序写入共享存储空间中的内容。",
        "permdesc_sendSms": "允许该程序发送短信。此权限可能会导致意外收费。恶意程序可能会未经的确认而发送短信，由此产生相关费用。",
        "permdesc_setAlarm": "允许程序在已安装的闹钟程序中设置闹钟。有些闹钟程序可能无法实现此功能。",
        "permdesc_setInputCalibration": "允许程序修改触摸屏的校准参数。普通程序绝不需要此权限。",
        "permdesc_setTimeZone": "允许程序更改手机的时区。",
        "permdesc_setWallpaper": "允许程序设置系统壁纸。",
        "permdesc_setWallpaperHints": "允许程序设置有关系统壁纸大小的提示。",
        "permdesc_sim_communication": "允许程序向SIM卡发送命令（此权限具有很高的危险性）。",
        "permdesc_startViewPermissionUsage": "允许该程序开始查看程序的权限使用情况（普通程序绝不需要此权限）。",
        "permdesc_statusBar": "允许程序停用状态栏或者增删系统图标。",
        "permdesc_statusBarService": "允许以状态栏形式显示程序。",
        "permdesc_subscribedFeedsRead": "允许程序获取有关当前同步的Feed的详情。",
        "permdesc_systemAlertWindow": "此程序可显示在其他程序上方或屏幕的其他部分。这可能会妨碍正常地使用程序，且其他程序的显示方式可能会受到影响。",
        "permdesc_transmitIr": "允许程序使用手机的红外线发射器。",
        "permdesc_uninstall_shortcut": "允许程序自行删除主屏幕快捷方式。",
        "permdesc_useBiometric": "允许该程序使用生物特征硬件进行身份验证",
        "permdesc_useDataInBackground": "此程序可在后台使用数据，这样可能会增加流量消耗。",
        "permdesc_useFaceAuthentication": "允许该程序使用人脸身份验证硬件进行身份验证",
        "permdesc_useFingerprint": "允许该程序使用指纹硬件进行身份验证",
        "permdesc_use_sip": "允许该程序拨打和接听SIP电话。",
        "permdesc_vibrate": "允许程序控制振动器。",
        "permdesc_videoWrite": "允许该程序修改的视频收藏。",
        "permdesc_wakeLock": "允许程序阻止手机进入休眠状态。",
        "permdesc_writeCalendar": "此程序可在手机上添加、移除或更改日历活动。此程序可能会以日历所有者的身份发送消息，或在不通知所有者的情况下更改活动。",
        "permdesc_writeCallLog": "允许该程序修改手机的通话记录，包括有关来电和外拨电话的数据。恶意程序可能会借此清除或修改的通话记录。",
        "permdesc_writeContacts": "允许该程序修改手机上存储的联系人的相关数据，包括通过打电话、发送电子邮件或以其他方式与特定联系人通信的频率。此权限可让程序删除联系人数据。",
        "permdesc_writeGeolocationPermissions": "允许程序修改“浏览器”的地理位置权限。恶意程序可能借此向任意网站发送位置信息。",
        "permdesc_writeHistoryBookmarks": "允许该程序修改手机上存储的浏览器历史记录或浏览器书签。此权限可让该程序清除或修改浏览器数据。请注意：此权限可能不适用于第三方浏览器或具备网页浏览功能的其他程序。",
        "permdesc_writeSettings": "允许程序修改系统的设置数据。恶意程序可能会破坏的系统配置。",
        "permdesc_writeSyncSettings": "允许该程序修改某个帐号的同步设置。例如，此权限可用于在“联系人”程序与某个帐号之间启用同步。",
        "permgroupbackgroundrequest_location": "允许<b>",
        "permgroupbackgroundrequestdetail_location": "目前只有当使用该程序时，该程序才能访问位置信息",
        "permgroupdesc_activityRecognition": "访问的健身运动",
        "permgroupdesc_calendar": "访问的日历",
        "permgroupdesc_calllog": "读取和写入手机通话记录",
        "permgroupdesc_camera": "拍摄照片和录制视频",
        "permgroupdesc_contacts": "访问的通讯录",
        "permgroupdesc_location": "获取此设备的位置信息",
        "permgroupdesc_microphone": "录制音频",
        "permgroupdesc_phone": "拨打电话和管理通话",
        "permgroupdesc_sensors": "访问与的生命体征相关的传感器数据",
        "permgroupdesc_sms": "发送和查看短信",
        "permgroupdesc_storage": "访问设备上的照片、媒体内容和文件",
        "permgrouplab_activityRecognition": "健身运动",
        "permgrouplab_calendar": "日历",
        "permgrouplab_calllog": "通话记录",
        "permgrouplab_camera": "相机",
        "permgrouplab_contacts": "通讯录",
        "permgrouplab_location": "位置信息",
        "permgrouplab_microphone": "麦克风",
        "permgrouplab_phone": "电话",
        "permgrouplab_sensors": "身体传感器",
        "permgrouplab_sms": "短信",
        "permgrouplab_storage": "存储空间",
        "permgrouprequest_activityRecognition": "允许<b>",
        "permgrouprequest_calendar": "允许<b>",
        "permgrouprequest_calllog": "允许<b>",
        "permgrouprequest_camera": "允许<b>",
        "permgrouprequest_contacts": "允许<b>",
        "permgrouprequest_location": "允许“",
        "permgrouprequest_microphone": "允许<b>",
        "permgrouprequest_phone": "允许“<b>",
        "permgrouprequest_sensors": "允许<b>",
        "permgrouprequest_sms": "允许<b>",
        "permgrouprequest_storage": "允许“",
        "permgrouprequestdetail_location": "只有当使用该程序时，该程序才有权访问位置信息",
        "permlab_acceptHandover": "继续进行来自其他程序的通话",
        "permlab_accessBackgroundLocation": "在后台使用位置信息",
        "permlab_accessCoarseLocation": "只能在前台获取大概位置（基于网络）",
        "permlab_accessDrmCertificates": "访问DRM证书",
        "permlab_accessFineLocation": "只能在前台获取精确的位置信息",
        "permlab_accessImsCallService": "使用即时通讯通话服务",
        "permlab_accessLocationExtraCommands": "获取额外的位置信息提供程序命令",
        "permlab_accessNetworkConditions": "监听网络状况的观测信息",
        "permlab_accessNetworkState": "查看网络连接",
        "permlab_accessNotifications": "访问通知",
        "permlab_accessWifiState": "查看WLAN连接",
        "permlab_accessWimaxState": "建立或中断WiMAX网络连接",
        "permlab_access_notification_policy": "“勿扰”模式使用权限",
        "permlab_activityRecognition": "识别健身运动",
        "permlab_addVoicemail": "添加语音邮件",
        "permlab_answerPhoneCalls": "接听来电",
        "permlab_audioWrite": "修改的音乐收藏",
        "permlab_bindCarrierMessagingService": "绑定到运营商消息传递服务",
        "permlab_bindCarrierServices": "绑定到运营商服务",
        "permlab_bindConditionProviderService": "绑定到条件提供程序服务",
        "permlab_bindDreamService": "绑定到互动屏保服务",
        "permlab_bindNotificationListenerService": "绑定到通知侦听器服务",
        "permlab_bind_connection_service": "与电话服务交互",
        "permlab_bind_incall_service": "与通话屏幕互动",
        "permlab_bluetooth": "与蓝牙设备配对",
        "permlab_bluetoothAdmin": "访问蓝牙设置",
        "permlab_bodySensors": "访问身体传感器（如心率监测器）",
        "permlab_broadcastSticky": "发送持久广播",
        "permlab_callCompanionApp": "查看并控制通过系统拨打的电话。",
        "permlab_callPhone": "拨打电话",
        "permlab_camera": "拍摄照片和视频",
        "permlab_changeNetworkState": "更改网络连接性",
        "permlab_changeTetherState": "更改网络共享连接",
        "permlab_changeWifiMulticastState": "允许接收WLAN多播",
        "permlab_changeWifiState": "连接WLAN网络和断开连接",
        "permlab_changeWimaxState": "更改WiMAX状态",
        "permlab_connection_manager": "管理电信网络连接",
        "permlab_control_incall_experience": "向用户提供通话体验",
        "permlab_createNetworkSockets": "拥有完全的网络访问权限",
        "permlab_disableKeyguard": "停用屏幕锁定",
        "permlab_enableCarMode": "启用车载模式",
        "permlab_expandStatusBar": "展开/收拢状态栏",
        "permlab_foregroundService": "运行前台服务",
        "permlab_getAccounts": "查找设备上的帐号",
        "permlab_getPackageSize": "计算程序存储空间",
        "permlab_getTasks": "检索正在运行的程序",
        "permlab_handoverStatus": "接收AndroidBeam的传输状态",
        "permlab_imagesWrite": "修改的照片收藏",
        "permlab_install_shortcut": "安装快捷方式",
        "permlab_invokeCarrierSetup": "调用运营商提供的配置程序",
        "permlab_killBackgroundProcesses": "关闭其他程序",
        "permlab_manageFace": "管理人脸身份验证硬件",
        "permlab_manageFingerprint": "管理指纹硬件",
        "permlab_manageNetworkPolicy": "管理网络政策",
        "permlab_manageOwnCalls": "通过系统转接来电",
        "permlab_manageProfileAndDeviceOwners": "管理个人资料和设备所有者",
        "permlab_mediaLocation": "从的媒体收藏中读取位置信息",
        "permlab_modifyAudioSettings": "更改的音频设置",
        "permlab_modifyNetworkAccounting": "修改网络使用情况记录方式",
        "permlab_nfc": "控制近距离通信",
        "permlab_persistentActivity": "让程序始终运行",
        "permlab_processOutgoingCalls": "重新设置外拨电话的路径",
        "permlab_readCalendar": "读取日历活动和详情",
        "permlab_readCallLog": "读取通话记录",
        "permlab_readCellBroadcasts": "读取小区广播消息",
        "permlab_readContacts": "读取联系人",
        "permlab_readHistoryBookmarks": "读取的网络书签和历史记录",
        "permlab_readInstallSessions": "读取安装会话",
        "permlab_readNetworkUsageHistory": "读取网络使用情况历史记录",
        "permlab_readPhoneNumbers": "读取电话号码",
        "permlab_readPhoneState": "读取手机状态和身份",
        "permlab_readSms": "读取短信",
        "permlab_readSyncSettings": "读取同步设置",
        "permlab_readSyncStats": "读取同步统计信息",
        "permlab_receiveBootCompleted": "开机启动",
        "permlab_receiveMms": "接收讯息（彩信）",
        "permlab_receiveSms": "接收讯息（短信）",
        "permlab_receiveWapPush": "接收讯息(WAP)",
        "permlab_recordAudio": "录音",
        "permlab_register_call_provider": "注册新的电信网络连接",
        "permlab_register_sim_subscription": "注册新的电信SIM卡连接",
        "permlab_removeDrmCertificates": "移除DRM证书",
        "permlab_reorderTasks": "对正在运行的程序重新排序",
        "permlab_requestDeletePackages": "请求删除文件包",
        "permlab_requestIgnoreBatteryOptimizations": "请求忽略电池优化",
        "permlab_requestInstallPackages": "请求安装文件包",
        "permlab_requestPasswordComplexity": "请求屏幕锁定复杂度",
        "permlab_route_media_output": "更改媒体输出线路",
        "permlab_runInBackground": "在后台运行",
        "permlab_sdcardRead": "读取共享存储空间中的内容",
        "permlab_sdcardWrite": "修改或删除共享存储空间中的内容",
        "permlab_sendSms": "发送短信",
        "permlab_setAlarm": "设置闹钟",
        "permlab_setInputCalibration": "更改输入设备校准设置",
        "permlab_setTimeZone": "设置时区",
        "permlab_setWallpaper": "设置壁纸",
        "permlab_setWallpaperHints": "调整的壁纸大小",
        "permlab_sim_communication": "向SIM卡发送命令",
        "permlab_startViewPermissionUsage": "授权使用“查看权限”",
        "permlab_statusBar": "停用或修改状态栏",
        "permlab_statusBarService": "用作状态栏",
        "permlab_subscribedFeedsRead": "读取订阅的供稿",
        "permlab_systemAlertWindow": "此程序可显示在其他程序上方",
        "permlab_transmitIr": "发射红外线",
        "permlab_uninstall_shortcut": "卸载快捷方式",
        "permlab_useBiometric": "使用生物特征硬件",
        "permlab_useDataInBackground": "在后台使用数据",
        "permlab_useFaceAuthentication": "使用人脸身份验证硬件",
        "permlab_useFingerprint": "使用指纹硬件",
        "permlab_use_sip": "拨打/接听SIP电话",
        "permlab_vibrate": "控制振动",
        "permlab_videoWrite": "修改的视频收藏",
        "permlab_wakeLock": "防止手机休眠",
        "permlab_writeCalendar": "添加或修改日历活动，并在所有者不知情的情况下向邀请对象发送电子邮件",
        "permlab_writeCallLog": "新建/修改/删除通话记录",
        "permlab_writeContacts": "修改的通讯录",
        "permlab_writeGeolocationPermissions": "修改“浏览器”地理位置的权限",
        "permlab_writeHistoryBookmarks": "写入网络书签和历史记录",
        "permlab_writeSettings": "修改系统设置",
        "permlab_writeSyncSettings": "启用和停用同步"
    },
    "sidebars": {
        "donate": {
            "bank_transfer_name": "名称",
            "bitcoin_alt": "使用 Bitcoin 捐赠",
            "flattr_alt": "使用 Flattr 捐赠",
            "heading": "捐赠",
            "hellotux": "👕T恤衫👕来自",
            "hellotux_alt": "HELLOTUX",
            "hellotux_donation": "每卖出一件衬衫 F-Droid 将收到3欧元。",
            "liberapay_alt": "使用 Liberapay 捐赠",
            "litecoin_alt": "使用 Litecoin 捐赠",
            "opencollective_alt": "捐赠给我们的集体",
            "paypal_alt": "使用 PayPal 捐赠",
            "powered_by_donations": "您的捐赠将是 F-Droid 运作的驱动力！",
            "via_bank_transfer": "使用银行转账"
        },
        "lang": {
            "change": "更改"
        },
        "last_updated": {
            "heading": "最近更新"
        },
        "latest_packages": {
            "heading": "最新程序"
        },
        "news": {
            "heading": "新闻"
        },
        "search": {
            "heading": "查找程序",
            "noscript": "需启用JavaScript",
            "search": "搜索"
        }
    }
}
